﻿<?xml version="1.0" encoding="UTF-8"?>
<TestRun id="bbfe50cb-a37f-4919-b759-484504fbad31" name="khoavl@THODIAKHOA 2011-03-10 15:10:51" runUser="KINGCORP\khoavl" xmlns="http://microsoft.com/schemas/VisualStudio/TeamTest/2010">
  <TestSettings name="Local" id="c6daae7c-a1d6-48c7-b610-ca56b49b64a2">
    <Description>These are default test settings for a local test run.</Description>
    <Deployment enabled="false" runDeploymentRoot="khoavl_THODIAKHOA 2011-03-10 15_10_51">
      <DeploymentItem filename="D:\MyData\kvl\ContosoUniversity\ContosoUniversity\bin\ContosoUniversity.dll" />
    </Deployment>
    <Execution>
      <TestTypeSpecific />
      <AgentRule name="Execution Agents">
      </AgentRule>
    </Execution>
  </TestSettings>
  <Times creation="2011-03-10T15:10:51.9698791+07:00" queuing="2011-03-10T15:10:51.9698791+07:00" start="2011-03-10T15:10:51.9855043+07:00" finish="2011-03-10T15:10:52.2198823+07:00" />
  <ResultSummary outcome="Completed">
    <Counters total="2" executed="2" passed="2" error="0" failed="0" timeout="0" aborted="0" inconclusive="0" passedButRunAborted="0" notRunnable="0" notExecuted="0" disconnected="0" warning="0" completed="0" inProgress="0" pending="0" />
  </ResultSummary>
  <TestDefinitions>
    <UnitTest name="AdministratorAssignmentRestrictionOnInsert" storage="d:\mydata\kvl\contosouniversity\contosouniversity.tests\bin\debug\contosouniversity.tests.dll" id="4aa43ca0-19ac-56b5-0c92-616271409f5d">
      <Execution id="0be3471a-23d9-4df2-95da-9d49cf78ae57" />
      <TestMethod codeBase="D:/MyData/kvl/ContosoUniversity/ContosoUniversity.Tests/bin/Debug/ContosoUniversity.Tests.DLL" adapterTypeName="Microsoft.VisualStudio.TestTools.TestTypes.Unit.UnitTestAdapter, Microsoft.VisualStudio.QualityTools.Tips.UnitTest.Adapter, Version=10.0.0.0, Culture=neutral, PublicKeyToken=b03f5f7f11d50a3a" className="ContosoUniversity.Tests.UnitTest1, ContosoUniversity.Tests, Version=1.0.0.0, Culture=neutral, PublicKeyToken=null" name="AdministratorAssignmentRestrictionOnInsert" />
    </UnitTest>
    <UnitTest name="AdministratorAssignmentRestrictionOnUpdate" storage="d:\mydata\kvl\contosouniversity\contosouniversity.tests\bin\debug\contosouniversity.tests.dll" id="bd2f72c5-5e42-2b6d-e641-f1c9934a8078">
      <Execution id="cbf4c1ac-4c46-4b6a-b1f9-33f5b7ef21aa" />
      <TestMethod codeBase="D:/MyData/kvl/ContosoUniversity/ContosoUniversity.Tests/bin/Debug/ContosoUniversity.Tests.DLL" adapterTypeName="Microsoft.VisualStudio.TestTools.TestTypes.Unit.UnitTestAdapter, Microsoft.VisualStudio.QualityTools.Tips.UnitTest.Adapter, Version=10.0.0.0, Culture=neutral, PublicKeyToken=b03f5f7f11d50a3a" className="ContosoUniversity.Tests.UnitTest1, ContosoUniversity.Tests, Version=1.0.0.0, Culture=neutral, PublicKeyToken=null" name="AdministratorAssignmentRestrictionOnUpdate" />
    </UnitTest>
  </TestDefinitions>
  <TestLists>
    <TestList name="Results Not in a List" id="8c84fa94-04c1-424b-9868-57a2d4851a1d" />
    <TestList name="All Loaded Results" id="19431567-8539-422a-85d7-44ee4e166bda" />
  </TestLists>
  <TestEntries>
    <TestEntry testId="4aa43ca0-19ac-56b5-0c92-616271409f5d" executionId="0be3471a-23d9-4df2-95da-9d49cf78ae57" testListId="8c84fa94-04c1-424b-9868-57a2d4851a1d" />
    <TestEntry testId="bd2f72c5-5e42-2b6d-e641-f1c9934a8078" executionId="cbf4c1ac-4c46-4b6a-b1f9-33f5b7ef21aa" testListId="8c84fa94-04c1-424b-9868-57a2d4851a1d" />
  </TestEntries>
  <Results>
    <UnitTestResult executionId="0be3471a-23d9-4df2-95da-9d49cf78ae57" testId="4aa43ca0-19ac-56b5-0c92-616271409f5d" testName="AdministratorAssignmentRestrictionOnInsert" computerName="THODIAKHOA" duration="00:00:00.0331105" startTime="2011-03-10T15:10:51.9855043+07:00" endTime="2011-03-10T15:10:52.1886319+07:00" testType="13cdc9d9-ddb5-4fa4-a97d-d965ccfc6d4b" outcome="Passed" testListId="8c84fa94-04c1-424b-9868-57a2d4851a1d" relativeResultsDirectory="0be3471a-23d9-4df2-95da-9d49cf78ae57">
    </UnitTestResult>
    <UnitTestResult executionId="cbf4c1ac-4c46-4b6a-b1f9-33f5b7ef21aa" testId="bd2f72c5-5e42-2b6d-e641-f1c9934a8078" testName="AdministratorAssignmentRestrictionOnUpdate" computerName="THODIAKHOA" duration="00:00:00.0012145" startTime="2011-03-10T15:10:52.1886319+07:00" endTime="2011-03-10T15:10:52.2042571+07:00" testType="13cdc9d9-ddb5-4fa4-a97d-d965ccfc6d4b" outcome="Passed" testListId="8c84fa94-04c1-424b-9868-57a2d4851a1d" relativeResultsDirectory="cbf4c1ac-4c46-4b6a-b1f9-33f5b7ef21aa">
    </UnitTestResult>
  </Results>
</TestRun>